{
  "change_self_email": {
      "u_basic": true,
      "u_worker": false,
      "u_entity": true,
      "u_admin": true
    },
  "edit_self_profile": {
    "u_basic": true,
    "u_worker": true,
    "u_entity": true,
    "u_admin": true
  },
  "delete_self_account": {
    "u_basic": true,
    "u_worker": false,
    "u_entity": true,
    "u_admin": true
  },
  "change_self_password": {
    "u_basic": true,
    "u_worker": true,
    "u_entity": true,
    "u_admin": true
  },
  "list_self_info": {
    "u_basic": true,
    "u_worker": true,
    "u_entity": true,
    "u_admin": true
  },
  "list_other_basic_info": {
    "u_basic": true,
    "u_worker": true,
    "u_entity": true,
    "u_admin": true
  },
  "list_self_comments": {
    "u_basic": true,
    "u_worker": false,
    "u_entity": false,
    "u_admin": true
  },
  "list_self_votes": {
    "u_basic": true,
    "u_worker": false,
    "u_entity": false,
    "u_admin": true
  },
  "add_image": {
    "u_basic": true,
    "u_worker": true,
    "u_entity": false,
    "u_admin": true
  },
  "list_self_points": {
    "u_basic": true,
    "u_worker": false,
    "u_entity": false,
    "u_admin": true
  },
  "create_new_occurrence": {
    "u_basic": true,
    "u_worker": false,
    "u_entity": false,
    "u_admin": true
  },
  "edit_self_occurrence": {
    "u_basic": true,
    "u_worker": false,
    "u_entity": false,
    "u_admin": true
  },
  "delete_self_occurrence": {
    "u_basic": true,
    "u_worker": false,
    "u_entity": false,
    "u_admin": true
  },
  "vote_occurrence": {
    "u_basic": true,
    "u_worker": false,
    "u_entity": false,
    "u_admin": true
  },
  "delete_vote": {
    "u_basic": true,
    "u_worker": false,
    "u_entity": false,
    "u_admin": true
  },
  "comment_occurrence": {
    "u_basic": true,
    "u_worker": false,
    "u_entity": false,
    "u_admin": true
  },
  "delete_comment": {
    "u_basic": true,
    "u_worker": false,
    "u_entity": false,
    "u_admin": true
  },
  "edit_comment": {
    "u_basic": true,
    "u_worker": false,
    "u_entity": false,
    "u_admin": true
  },
  "report_occurrence": {
    "u_basic": true,
    "u_worker": true,
    "u_entity": true,
    "u_admin": true
  },
  "list_my_occurrences": {
    "u_basic": true,
    "u_worker": false,
    "u_entity": false,
    "u_admin": true
  },
  "change_settings": {
    "u_basic": true,
    "u_worker": true,
    "u_entity": true,
    "u_admin": true
  },
  "list_self_worker_jobs": {
    "u_basic": false,
    "u_worker": true,
    "u_entity": false,
    "u_admin": true
  },
  "list_occurrences_in_area": {
    "u_basic": false,
    "u_worker": false,
    "u_entity": true,
    "u_admin": true
  },
  "change_other_occurrence_type": {
    "u_basic": false,
    "u_worker": true,
    "u_entity": false,
    "u_admin": true
  },
  "mark_occurrence_complete": {
    "u_basic": false,
    "u_worker": true,
    "u_entity": false,
    "u_admin": true
  },
  "create_worker": {
    "u_basic": false,
    "u_worker": false,
    "u_entity": true,
    "u_admin": true
  },
  "edit_self_worker": {
    "u_basic": false,
    "u_worker": false,
    "u_entity": true,
    "u_admin": true
  },
  "delete_self_worker": {
    "u_basic": false,
    "u_worker": false,
    "u_entity": true,
    "u_admin": true
  },
  "associate_self_occurrence_worker": {
    "u_basic": false,
    "u_worker": false,
    "u_entity": true,
    "u_admin": true
  },
  "disassociate_self_occurrence_worker": {
    "u_basic": false,
    "u_worker": false,
    "u_entity": true,
    "u_admin": true
  },
  "confirm_self_job_completion": {
    "u_basic": false,
    "u_worker": false,
    "u_entity": true,
    "u_admin": true
  },
  "list_self_workers": {
    "u_basic": false,
    "u_worker": false,
    "u_entity": true,
    "u_admin": true
  },
  "list_self_jobs": {
    "u_basic": false,
    "u_worker": false,
    "u_entity": true,
    "u_admin": true
  },
  "edit_all_occurrences": {
    "u_basic": false,
    "u_worker": false,
    "u_entity": false,
    "u_admin": true
  },
  "list_all_occurrences": {
    "u_basic": false,
    "u_worker": false,
    "u_entity": true,
    "u_admin": true
  },
  "get_info_all_occurrences": {
    "u_basic": true,
    "u_worker": true,
    "u_entity": true,
    "u_admin": true
  },
  "delete_all_occurrences": {
    "u_basic": false,
    "u_worker": false,
    "u_entity": false,
    "u_admin": true
  },
  "delete_all_users": {
    "u_basic": false,
    "u_worker": false,
    "u_entity": false,
    "u_admin": true
  },
  "list_all_users": {
    "u_basic": false,
    "u_worker": false,
    "u_entity": false,
    "u_admin": true
  },
  "verify_role_change": {
    "u_basic": false,
    "u_worker": false,
    "u_entity": false,
    "u_admin": true
  },
  "delete_all_comments": {
    "u_basic": false,
    "u_worker": false,
    "u_entity": false,
    "u_admin": true
  },
  "create_new_admin": {
    "u_basic": false,
    "u_worker": false,
    "u_entity": false,
    "u_admin": true
  },
  "list_reports": {
    "u_basic": false,
    "u_worker": false,
    "u_entity": false,
    "u_admin": true
  },
  "confirm_report": {
    "u_basic": false,
    "u_worker": false,
    "u_entity": false,
    "u_admin": true
  },
  "create_new_event": {
    "u_basic": false,
    "u_worker": false,
    "u_entity": true,
    "u_admin": true
  },
  "join_event": {
    "u_basic": true,
    "u_worker": false,
    "u_entity": false,
    "u_admin": true
  },
  "manage_event": {
    "u_basic": false,
    "u_worker": true,
    "u_entity": false,
    "u_admin": true
  }
}